…
    ## 'data.frame':    3241 obs. of  2 variables:
    ##  $ abstract: chr  "Background and aims: Many patients with coronavirus disease 2019 (COVID-19) have underlying cardiovascular (CV)"| __truncated__ "Introduction: Contradictory data have been reported on the incidence of stroke in patients with COVID-19 and th"| __truncated__ "This article aims at collecting all information needed for dentists regarding the COVID-19 pandemic throughout "| __truncated__ "OBJECTIVE. The objective of our study was to determine the misdiagnosis rate of radiologists for coronavirus di"| __truncated__ ...
    ##  $ term    : chr  "covid" "covid" "covid" "covid" ...

``` r
pub <- as_tibble(pub)
pub
```

    ## # A tibble: 3,241 × 2
    ##    abstract                                                                term 
    ##    <chr>                                                                   <chr>
    ##  1 "Background and aims: Many patients with coronavirus disease 2019 (COV… covid
    ##  2 "Introduction: Contradictory data have been reported on the incidence … covid
    ##  3 "This article aims at collecting all information needed for dentists r… covid
    ##  4 "OBJECTIVE. The objective of our study was to determine the misdiagnos… covid
    ##  5 "Background: Much of the focus regarding the global pandemic of corona… covid
    ##  6 "The World Health Organization (WHO) has issued a warning that, althou… covid
    ##  7 "The coronavirus disease (COVID-19) has spread all around the world in… covid
    ##  8 "Objective: The novel severe acute respiratory syndrome coronavirus 2 … covid
    ##  9 "COVID-19 has been declared a global pandemic by the World Health Orga… covid
    ## 10 "Background: Coronavirus disease 2019 (COVID-19) is a novel infectious… covid
    ## # … with 3,231 more rows

## 1. Tokenize the abstracts and count the number of each token. Do you see anything interesting?

``` r
pub %>%
  unnest_tokens(token, abstract) %>%
  count(token, sort = TRUE) # %>%
```

    ## # A tibble: 20,567 × 2
    ##    token     n
    ##    <chr> <int>
    ##  1 the   28126
    ##  2 of    24760
    ##  3 and   19993
    ##  4 in    14653
    ##  5 to    10920
    ##  6 a      8245
    ##  7 with   8038
    ##  8 covid  7275
    ##  9 19     7080
    ## 10 is     5649
    ## # … with 20,557 more rows
…
